# ecotype schedule is created as expected

    # A tibble: 40 x 15
         Age Length Weight Fecundity Spawning NaturalMortality Vulnerability
       <int>  <dbl>  <dbl>     <dbl>    <dbl>            <dbl>         <dbl>
     1     1   13.9   27.0      27.0 3.13e-56              0.2      3.13e-56
     2     2   25.9  174.      174.  2.91e-29              0.2      2.91e-29
     3     3   36.2  476.      476.  1.04e-14              0.2      1.04e-14
     4     4   45.1  918.      918.  3.46e- 5              0.2      3.46e- 5
     5     5   52.8 1469.     1469.  9.95e- 1              0.2      9.95e- 1
     6     6   59.3 2090.     2090.  1.00e+ 0              0.2      1.00e+ 0
     7     7   65.0 2747.     2747.  1.00e+ 0              0.2      1.00e+ 0
     8     8   69.9 3412.     3412.  1.00e+ 0              0.2      1.00e+ 0
     9     9   74.1 4065.     4065.  1   e+ 0              0.2      1   e+ 0
    10    10   77.7 4689.     4689.  1   e+ 0              0.2      1   e+ 0
    # ... with 30 more rows, and 8 more variables: Retention <dbl>,
    #   FishingMortality <dbl>, Survivorship <dbl>, FishedSurvivorship <dbl>,
    #   Ecotype <chr>, Proportion <dbl>, Survivorship1 <dbl>,
    #   FishedSurvivorship1 <dbl>
