Yield-Per-Recruit — ypr • ypr
…
      t0
      The age at length 0.

      a
      The condition factor.

      b
      The scaling exponent.

    Examples

ypr()
#> # A tibble: 21 x 3
#>        t     L     W
#>    <int> <dbl> <dbl>
#>  1     0    0.    0.
#>  2     1  393.  609.
#>  3     2  632. 2526.
#>  4     3  777. 4689.
#>  5     4  865. 6465.
#>  6     5  918. 7734.
#>  7     6  950. 8580.
#>  8     7  970. 9121.
#>  9     8  982. 9461.
#> 10     9  989. 9670.
#> # ... with 11 more rows
…
