Tabulate Yields — ypr_tabulate_yields • ypr
…
ypr_populations: Tabulate Yields

    See also

    Other tabulate: 
ypr_tabulate_biomass(),
ypr_tabulate_fish(),
ypr_tabulate_parameters(),
ypr_tabulate_sr(),
ypr_tabulate_yield()

    Examples

ypr_tabulate_yields(ypr_population())
#> # A tibble: 100 x 7
#>        pi      u  Yield   Age Length Weight Effort
#>     <dbl>  <dbl>  <dbl> <dbl>  <dbl>  <dbl>  <dbl>
#>  1 0      0      0      NA      NA      NA  0     
#>  2 0.0101 0.0101 0.0126  8.42   68.5  3532. 0.0964
#>  3 0.0202 0.0202 0.0236  8.30   68.0  3466. 0.194 
#>  4 0.0303 0.0303 0.0331  8.18   67.6  3402. 0.292 
#>  5 0.0404 0.0404 0.0413  8.07   67.2  3339. 0.391 
#>  6 0.0505 0.0505 0.0482  7.96   66.8  3279. 0.492 
#>  7 0.0606 0.0606 0.0539  7.86   66.5  3220. 0.593 
#>  8 0.0707 0.0707 0.0585  7.76   66.1  3163. 0.696 
#>  9 0.0808 0.0808 0.0620  7.66   65.7  3108. 0.800 
#> 10 0.0909 0.0909 0.0646  7.57   65.4  3054. 0.905 
#> # … with 90 more rows
…
